Looking for git in: git
Using git 2.11.0 from git
> git rev-parse --git-dir
Open repository: /root
> git status -z -u
> git check-ignore -v -z --stdin
> git check-ignore -v -z --stdin
> git symbolic-ref --short HEAD
> git for-each-ref --format=%(refname)%00%(upstream:short)%00%(upstream:track)%00%(objectname) refs/heads/master refs/remotes/master
> git for-each-ref --sort -committerdate --format %(refname) %(objectname) %(*objectname)
> git remote --verbose
> git config --get commit.template
> git show --textconv :main.js
> git ls-files --stage -- /root/main.js
> git cat-file -s c922a92cde7bdb9c1b249c709fd148ebb3d727ea
> git show --textconv :MessageModel.js
> git ls-files --stage -- /root/MessageModel.js
> git check-ignore -v -z --stdin
> git show --textconv :Message.js
> git ls-files --stage -- /root/Message.js
> git check-ignore -v -z --stdin
> git show --textconv :main.js
> git ls-files --stage -- /root/main.js
> git cat-file -s c922a92cde7bdb9c1b249c709fd148ebb3d727ea
> git show --textconv :Message.js
> git ls-files --stage -- /root/Message.js
> git log --format=%H%n%aN%n%aE%n%at%n%ct%n%P%n%B -z -n21 -- /root/Message.js
> git log --format=%H%n%aN%n%aE%n%at%n%ct%n%P%n%B -z -n41 -- /root/Message.js
> git show --textconv :main.js
> git ls-files --stage -- /root/main.js
> git cat-file -s c922a92cde7bdb9c1b249c709fd148ebb3d727ea
> git show --textconv :Message.js
> git ls-files --stage -- /root/Message.js
> git show --textconv :main.js
> git ls-files --stage -- /root/main.js
> git cat-file -s c922a92cde7bdb9c1b249c709fd148ebb3d727ea
